{
	"vertical_structure": {
		"lat": 45.89340589,
		"lon": 11.01647539,
		"height": -1.7486,
		"point_num": 249,
		"point_list": [
			[45.893405,11.016473,229.893241],
			[45.893405,11.016473,229.899716],
			[45.893406,11.016475,229.490395],
			[45.893404,11.016474,229.907404],
			[45.893405,11.016473,230.317551],
			[45.893405,11.016475,229.498098],
			[45.893404,11.016474,229.914583],
			[45.893404,11.016473,230.324413],
			[45.893405,11.016473,230.739233],
			[45.893404,11.016475,229.921687],
			[45.893404,11.016474,230.331483],
			[45.893404,11.016475,229.927887],
			[45.893404,11.016474,230.337351],
			[45.893404,11.016474,230.750771],
			[45.893403,11.016476,229.93478],
			[45.893404,11.016475,230.344075],
			[45.893404,11.016474,230.756548],
			[45.893403,11.016476,229.94164],
			[45.893404,11.016475,230.350627],
			[45.893403,11.016476,230.356995],
			[45.893404,11.016475,230.771153],
			[45.893404,11.016478,229.955328],
			[45.893403,11.016476,230.363293],
			[45.893403,11.016476,230.776039],
			[45.893405,11.016479,229.962095],
			[45.893403,11.016476,230.782124],
			[45.893406,11.01648,229.968865],
			[45.893405,11.016478,230.381875],
			[45.893403,11.016477,230.789735],
			[45.893406,11.016479,230.392257],
			[45.893404,11.016478,230.802709],
			[45.893406,11.01648,230.400935],
			[45.893405,11.016479,230.816118],
			[45.893406,11.01648,230.829643],
			[45.893405,11.016473,230.054118],
			[45.893405,11.016473,230.061645],
			[45.893405,11.016473,230.414205],
			[45.893404,11.016474,230.069641],
			[45.893405,11.016473,230.421649],
			[45.893404,11.016474,230.076903],
			[45.893404,11.016474,230.428978],
			[45.893405,11.016473,230.779207],
			[45.893404,11.016475,230.082839],
			[45.893404,11.016474,230.434616],
			[45.893404,11.016473,230.783002],
			[45.893404,11.016475,230.090572],
			[45.893404,11.016474,230.441685],
			[45.893404,11.016474,230.790628],
			[45.893403,11.016476,230.097283],
			[45.893404,11.016475,230.448443],
			[45.893404,11.016474,230.796107],
			[45.893403,11.016476,230.104357],
			[45.893404,11.016475,230.455135],
			[45.893404,11.016474,230.803741],
			[45.893403,11.016476,230.460721],
			[45.893403,11.016475,230.808474],
			[45.893403,11.016476,230.467712],
			[45.893403,11.016475,230.814282],
			[45.893403,11.016476,230.821353],
			[45.893403,11.016476,230.828061],
			[45.893405,11.016478,230.498042],
			[45.893406,11.016479,230.509963],
			[45.893404,11.016478,230.852566],
			[45.893406,11.016479,230.878613],
			[45.893406,11.01648,230.888697],
			[45.893406,11.016475,229.181121],
			[45.893404,11.016473,229.773066],
			[45.893406,11.016475,229.189138],
			[45.893404,11.016473,229.780717],
			[45.893406,11.016475,229.493293],
			[45.893404,11.016474,229.788137],
			[45.893405,11.016473,230.079515],
			[45.893406,11.016475,229.500837],
			[45.893405,11.016473,230.086841],
			[45.893406,11.016476,229.508573],
			[45.893404,11.016474,230.094511],
			[45.893405,11.016473,230.384685],
			[45.893404,11.016474,230.102158],
			[45.893404,11.016473,230.391886],
			[45.893404,11.016475,229.819062],
			[45.893404,11.016474,230.109655],
			[45.893404,11.016474,230.39907],
			[45.893405,11.016473,230.692065],
			[45.893403,11.016476,229.826866],
			[45.893404,11.016475,230.117079],
			[45.893404,11.016474,230.406184],
			[45.893405,11.016473,230.69911],
			[45.893403,11.016476,229.834152],
			[45.893404,11.016475,230.124051],
			[45.893404,11.016474,230.412849],
			[45.893404,11.016474,230.704848],
			[45.893405,11.016473,230.999197],
			[45.893403,11.016476,229.841761],
			[45.893403,11.016476,230.131455],
			[45.893404,11.016475,230.41974],
			[45.893404,11.016473,231.004638],
			[45.893404,11.016477,229.84827],
			[45.893403,11.016476,230.137896],
			[45.893403,11.016475,230.425822],
			[45.893404,11.016474,230.717802],
			[45.893404,11.016473,231.009234],
			[45.893404,11.016477,229.856187],
			[45.893403,11.016476,230.145539],
			[45.893403,11.016476,230.433377],
			[45.893404,11.016475,230.725176],
			[45.893405,11.016478,229.863212],
			[45.893403,11.016477,230.153898],
			[45.893403,11.016476,230.439613],
			[45.893404,11.016475,230.7321],
			[45.893405,11.016479,229.870711],
			[45.893404,11.016477,230.162815],
			[45.893403,11.016476,230.446318],
			[45.893403,11.016476,230.737815],
			[45.893406,11.016479,229.877788],
			[45.893404,11.016478,230.171042],
			[45.893403,11.016477,230.45396],
			[45.893403,11.016476,230.744083],
			[45.893405,11.016475,231.04857],
			[45.893406,11.01648,229.884892],
			[45.893405,11.016478,230.179841],
			[45.893404,11.016477,230.464874],
			[45.893403,11.016476,230.74961],
			[45.893406,11.016479,230.189171],
			[45.893404,11.016478,230.475634],
			[45.893403,11.016477,230.757858],
			[45.893406,11.01648,230.197605],
			[45.893405,11.016478,230.485649],
			[45.893404,11.016477,230.768497],
			[45.893405,11.016479,230.497583],
			[45.893404,11.016478,230.781355],
			[45.893406,11.01648,230.508105],
			[45.893405,11.016478,230.792513],
			[45.893406,11.01648,230.518228],
			[45.893405,11.016479,230.80556],
			[45.893406,11.01648,230.818073],
			[45.893406,11.01648,230.830178],
			[45.893406,11.016475,228.921426],
			[45.893406,11.016475,228.931055],
			[45.893406,11.016476,228.938915],
			[45.893405,11.016476,228.94935],
			[45.893406,11.016475,229.1852],
			[45.893406,11.016476,229.201977],
			[45.893405,11.016473,229.911099],
			[45.893406,11.016476,229.207688],
			[45.893406,11.016475,229.444991],
			[45.893404,11.016473,229.91936],
			[45.893406,11.016475,229.453793],
			[45.893404,11.016473,229.927069],
			[45.893406,11.016476,229.461379],
			[45.893404,11.016474,229.934749],
			[45.893405,11.016473,230.168816],
			[45.893406,11.016476,229.469785],
			[45.893406,11.016475,229.709148],
			[45.893404,11.016474,229.94379],
			[45.893405,11.016473,230.177705],
			[45.893404,11.016474,229.950834],
			[45.893404,11.016473,230.184632],
			[45.893405,11.016473,230.420525],
			[45.893406,11.016476,229.72403],
			[45.893404,11.016475,229.958331],
			[45.893404,11.016474,230.191504],
			[45.893405,11.016473,230.427594],
			[45.893406,11.016476,229.732149],
			[45.893403,11.016475,229.966662],
			[45.893404,11.016474,230.19939],
			[45.893404,11.016473,230.435264],
			[45.893403,11.016475,229.974547],
			[45.893404,11.016475,230.207104],
			[45.893404,11.016474,230.442481],
			[45.893405,11.016473,230.680788],
			[45.893403,11.016476,229.981743],
			[45.893404,11.016475,230.213965],
			[45.893404,11.016474,230.448758],
			[45.893405,11.016473,230.687371],
			[45.893403,11.016476,229.989115],
			[45.893404,11.016475,230.221089],
			[45.893404,11.016474,230.455358],
			[45.893404,11.016474,230.693169],
			[45.893405,11.016473,230.932706],
			[45.893403,11.016477,229.997819],
			[45.893403,11.016476,230.228824],
			[45.893404,11.016475,230.462966],
			[45.893404,11.016474,230.701768],
			[45.893405,11.016473,230.939366],
			[45.893403,11.016477,230.005059],
			[45.893403,11.016476,230.235225],
			[45.893404,11.016475,230.468734],
			[45.893404,11.016474,230.705835],
			[45.893404,11.016473,230.944891],
			[45.893404,11.016477,230.013338],
			[45.893403,11.016476,230.242865],
			[45.893403,11.016475,230.475852],
			[45.893404,11.016475,230.712873],
			[45.893404,11.016474,230.951128],
			[45.893404,11.016478,230.021714],
			[45.893403,11.016477,230.25149],
			[45.893403,11.016476,230.482909],
			[45.893404,11.016475,230.71969],
			[45.893404,11.016474,230.957297],
			[45.893405,11.016479,229.794828],
			[45.893404,11.016478,230.029217],
			[45.893404,11.016477,230.25971],
			[45.893403,11.016476,230.488973],
			[45.893403,11.016475,230.723362],
			[45.893404,11.016474,230.962438],
			[45.893405,11.016478,230.038191],
			[45.893404,11.016477,230.269491],
			[45.893403,11.016476,230.496501],
			[45.893403,11.016476,230.732007],
			[45.893404,11.016475,230.968113],
			[45.893405,11.016479,230.04627],
			[45.893404,11.016478,230.27868],
			[45.893403,11.016477,230.506356],
			[45.893403,11.016476,230.738673],
			[45.893403,11.016475,230.974025],
			[45.893405,11.016479,230.055262],
			[45.893405,11.016478,230.28827],
			[45.893404,11.016477,230.517039],
			[45.893403,11.016476,230.745546],
			[45.893403,11.016475,230.98061],
			[45.893406,11.016479,230.063356],
			[45.893405,11.016478,230.297271],
			[45.893404,11.016478,230.526565],
			[45.893403,11.016477,230.753814],
			[45.893403,11.016476,230.986189],
			[45.893406,11.01648,230.071781],
			[45.893405,11.016479,230.306841],
			[45.893404,11.016478,230.537078],
			[45.893403,11.016477,230.76545],
			[45.893403,11.016476,230.99304],
			[45.893406,11.016479,230.315835],
			[45.893405,11.016478,230.546457],
			[45.893404,11.016477,230.776599],
			[45.893403,11.016477,230.998885],
			[45.893406,11.01648,230.32554],
			[45.893404,11.016478,230.787769],
			[45.893403,11.016477,231.010899],
			[45.893406,11.01648,230.334551],
			[45.893405,11.016479,230.561746],
			[45.893405,11.016478,230.798851],
			[45.893404,11.016477,231.022029],
			[45.893405,11.016479,230.5729],
			[45.893405,11.016479,230.809603],
			[45.893405,11.016479,230.821553],
			[45.893406,11.01648,230.597403],
			[45.893406,11.016479,230.833271],
			[45.893404,11.016478,231.055536],
			[45.893406,11.01648,230.844632],
			[45.893406,11.01648,230.855376]
		]
	}
}
